<?xml version="1.0" encoding="utf-8"?>
<!-- Generator: Adobe Illustrator 15.0.0, SVG Export Plug-In . SVG Version: 6.00 Build 0)  -->
<!DOCTYPE svg PUBLIC "-//W3C//DTD SVG 1.1//EN" "http://www.w3.org/Graphics/SVG/1.1/DTD/svg11.dtd">
<svg version="1.1" xmlns="http://www.w3.org/2000/svg" xmlns:xlink="http://www.w3.org/1999/xlink" x="0px" y="0px" width="400px"
	 height="400px" viewBox="48.5 12.5 400 400" enable-background="new 48.5 12.5 400 400" xml:space="preserve">
<g id="contour" display="none">
	<path id="contour_1_" display="inline" fill="none" stroke="#000000" stroke-linecap="round" d="M209.348,61.912
		c-33.21-33.21-87.054-33.21-120.264,0C73.136,77.86,64.177,99.49,64.177,122.044v180.913c0,46.967,38.073,85.039,85.039,85.039
		c17.348,0,34.278-5.306,48.524-15.204l190.273-132.213c49.81-37.953,59.422-109.1,21.469-158.908
		c-21.446-28.146-54.803-44.666-90.188-44.666h-85.039c-46.967,0-85.039,38.073-85.039,85.039v41.912
		c0,55.363,27.008,107.245,72.358,139.001l99.735,69.835c32.061,22.449,76.249,14.657,98.696-17.403
		c19.727-28.17,16.378-66.438-7.939-90.756L209.348,61.912"/>
</g>
<g id="logo">
	<path id="bleu" fill="#1355D8" d="M197.742,372.792c-14.246,9.898-31.178,15.204-48.524,15.204
		c-46.967,0-85.04-38.072-85.04-85.039V122.044c0-22.554,8.959-44.184,24.907-60.132c27.824-27.824,70.133-32.337,102.654-13.536
		l0.002,0.003c-25.422,14.703-42.523,42.188-42.523,73.665v41.912c0,55.363,27.008,107.245,72.358,139.001l38.194,26.744
		L197.742,372.792z"/>
	<path id="vert" fill="#009245" d="M321.31,372.792c32.061,22.449,76.248,14.657,98.696-17.403
		c19.726-28.17,16.377-66.438-7.94-90.756l-24.053-24.054l-128.249,89.119L321.31,372.792z"/>
	<path id="rouge" fill="#D81927" d="M209.347,61.912c-5.393-5.393-11.276-9.91-17.579-13.551
		c12.501-7.225,27.011-11.357,42.487-11.357h85.039c35.386,0,68.742,16.521,90.188,44.666
		c37.953,49.812,28.342,120.955-21.469,158.908L209.347,61.912z"/>
	<path id="blanc" fill="#FFFFFF" d="M191.739,48.376c-25.443,14.697-42.521,42.172-42.521,73.668v41.912
		c0,55.363,27.008,107.245,72.358,139.001l38.189,26.741l128.248-89.119L209.347,61.912
		C203.963,56.526,198.034,52.014,191.739,48.376"/>
</g>
</svg>
