<?xml version="1.0" encoding="utf-8"?>
<!-- Generator: Adobe Illustrator 15.0.0, SVG Export Plug-In . SVG Version: 6.00 Build 0)  -->
<!DOCTYPE svg PUBLIC "-//W3C//DTD SVG 1.1//EN" "http://www.w3.org/Graphics/SVG/1.1/DTD/svg11.dtd">
<svg version="1.1" id="Calque_1" xmlns="http://www.w3.org/2000/svg" xmlns:xlink="http://www.w3.org/1999/xlink" x="0px" y="0px"
	 width="400px" height="400px" viewBox="0 0 400 400" enable-background="new 0 0 400 400" xml:space="preserve">
<g>
	<circle fill="#D81C28" cx="200" cy="200" r="150"/>
	<g>
		<g>
			<g>
				<path fill="#FFFFFF" d="M201.358,302.089C201.358,302.089,201.358,302.089,201.358,302.089c-15.137,0-29.007-8.272-36.2-21.574
					l-36.408-67.333c-2.267-4.193-3.367-8.928-3.183-13.691c0.269-6.922,3.168-13.375,8.165-18.17
					c4.982-4.781,11.524-7.415,18.419-7.415c0.228,0,0.456,0.003,0.686,0.009c0.645-3.734,1.771-7.402,3.373-10.965
					c2.518-5.602,6.135-10.781,10.75-15.396l20.746-20.746c3.528-3.528,7.474-6.301,11.728-8.24
					c4.576-2.087,9.37-3.145,14.248-3.145c0.775,0,1.561,0.027,2.337,0.082c9.892,0.688,18.878,5.144,25.306,12.545
					c6.421,7.396,9.578,16.916,8.889,26.809l-0.005,0.062l-1.794,22.693l14.28,0.554c5.737,0.222,11.115,2.266,15.552,5.908
					c4.438,3.644,7.487,8.521,8.822,14.104c1.619,6.78,0.503,13.786-3.146,19.726s-9.393,10.104-16.174,11.723l-23.293,5.565
					l-0.011,0.15l-0.116,0.027l-1.981,28.436c-0.479,6.892-2.711,13.604-6.453,19.412c-3.741,5.807-8.931,10.621-15.008,13.907
					C214.891,300.367,208.137,302.089,201.358,302.089z M152.052,187.01c-7.236,0.052-13.108,5.737-13.39,12.986
					c-0.094,2.418,0.465,4.821,1.615,6.949l36.407,67.363c4.902,9.064,14.355,14.731,24.673,14.731c0.001,0,0.001,0,0.001,0
					c4.609,0,9.207-1.203,13.294-3.413c8.485-4.59,13.95-13.092,14.622-22.715l1.696-24.367l-32.571,7.716
					c-1.621,0.387-3.287,0.58-4.951,0.58c-7.884,0.001-15.112-4.31-18.865-11.247l-17.05-31.518
					C154.664,198.77,152.808,192.963,152.052,187.01z M165.48,187.971c0.698,3.435,1.902,6.77,3.579,9.871l17.05,31.517
					c1.461,2.7,4.271,4.376,7.338,4.376c0.641,0,1.283-0.076,1.909-0.226l0.012-0.002l36.557-8.664l0.009-0.132l0.146-0.035
					l2.488-34.235L165.48,187.971z M247.689,190.697l-2.238,30.784l19.252-4.6c3.376-0.807,6.235-2.88,8.053-5.837
					s2.373-6.445,1.566-9.82c-1.348-5.643-6.338-9.74-12.136-9.965L247.689,190.697z M166.009,174.877l69.281,2.477l1.854-23.436
					c0.437-6.395-1.592-12.529-5.714-17.277c-4.129-4.756-9.927-7.619-16.321-8.064c-0.475-0.033-0.954-0.049-1.427-0.049
					c-7.573,0-13.267,4.103-16.709,7.545l-20.747,20.746C170.938,162.107,167.429,168.357,166.009,174.877z"/>
			</g>
			<g>
				
					<line fill="none" stroke="#FFFFFF" stroke-width="1.008" stroke-miterlimit="10" x1="149.084" y1="150.745" x2="186.512" y2="113.318"/>
				<g>
					<path fill="#FFFFFF" d="M190.813,109.016c-1.273,2.775-2.504,6.568-2.703,9.482l-2.163-4.616l-4.616-2.163
						C184.246,111.52,188.038,110.29,190.813,109.016z"/>
				</g>
			</g>
			<g>
				
					<line fill="none" stroke="#FFFFFF" stroke-width="1.008" stroke-miterlimit="10" x1="261.649" y1="141.961" x2="250.46" y2="281.574"/>
				<g>
					<path fill="#FFFFFF" d="M249.974,287.639c-0.83-2.938-2.353-6.623-4.09-8.971l4.64,2.11l4.916-1.346
						C253.351,281.474,251.261,284.87,249.974,287.639z"/>
				</g>
			</g>
			<g>
				
					<line fill="none" stroke="#FFFFFF" stroke-width="1.008" stroke-miterlimit="10" x1="153.95" y1="283.818" x2="116.866" y2="215.156"/>
				<g>
					<path fill="#FFFFFF" d="M113.976,209.803c2.295,2.014,5.577,4.278,8.312,5.303l-5.042,0.753l-3.394,3.804
						C114.496,216.812,114.402,212.826,113.976,209.803z"/>
				</g>
			</g>
			<g>
				
					<line fill="none" stroke="#FFFFFF" stroke-width="1.008" stroke-miterlimit="10" x1="128.252" y1="163.31" x2="271.548" y2="166.611"/>
				<g>
					<path fill="#FFFFFF" d="M277.63,166.752c-2.887,0.995-6.479,2.725-8.725,4.594l1.844-4.753l-1.622-4.831
						C271.283,163.73,274.793,165.625,277.63,166.752z"/>
				</g>
			</g>
			<g>
				
					<line fill="none" stroke="#FFFFFF" stroke-width="1.008" stroke-miterlimit="10" x1="276.186" y1="236.118" x2="205.9" y2="253.683"/>
				<g>
					<path fill="#FFFFFF" d="M199.999,255.159c2.52-1.726,5.525-4.345,7.196-6.741l-0.52,5.071l2.844,4.229
						C206.918,256.391,203.033,255.494,199.999,255.159z"/>
				</g>
			</g>
			<g>
				
					<line fill="none" stroke="#FFFFFF" stroke-width="1.008" stroke-miterlimit="10" x1="165.866" y1="237.744" x2="149.44" y2="208.273"/>
				<g>
					<path fill="#FFFFFF" d="M146.479,202.961c2.321,1.982,5.634,4.203,8.382,5.191l-5.032,0.818l-3.342,3.85
						C147.091,209.963,146.945,205.978,146.479,202.961z"/>
				</g>
			</g>
		</g>
		<path fill="#FFFFFF" d="M110.868,263.129l5.812,11.142l-7.899,4.12l-16.912-32.427l11.182-5.832l8.81-2.374l8.207,6.508
			l0.433,0.831l1.753,6.808l-1.971,4.94l11.363,9.62l-8.521,4.445l-10.052-8.93L110.868,263.129z M107.312,256.312l3.617-1.886
			l1.897-1.837l-0.438-3.578l-0.173-0.332l-2.685-2.408l-2.591,0.506l-3.617,1.886L107.312,256.312z"/>
		<path fill="#FFFFFF" d="M143.789,103.39l1.824,1.824l3.547-3.548l5.305,5.305l-3.547,3.547l12.267,12.267l-6.101,6.1
			l-12.267-12.267l-2.652,2.652l-5.305-5.305l2.652-2.652l-2.486-2.486l-3.481-7.327l3.581-6.63l2.154-1.824l1.26-0.663l4.974,4.973
			l-0.763,0.498l-0.962,0.828l-1.26,2.122L143.789,103.39z"/>
		<path fill="#FFFFFF" d="M279.628,263.32l-0.113,2.576l5.013,0.222l-0.332,7.494l-5.012-0.222l-0.766,17.332l-8.619-0.381
			l0.766-17.331l-3.747-0.165l0.331-7.495l3.747,0.165l0.155-3.513l3.054-7.516l7.31-1.836l2.8,0.358l1.34,0.481l-0.311,7.026
			l-0.882-0.227l-1.26-0.149l-2.416,0.503L279.628,263.32z"/>
	</g>
</g>
</svg>
