<?xml version="1.0" encoding="utf-8"?>
<!-- Generator: Adobe Illustrator 15.0.0, SVG Export Plug-In . SVG Version: 6.00 Build 0)  -->
<!DOCTYPE svg PUBLIC "-//W3C//DTD SVG 1.1//EN" "http://www.w3.org/Graphics/SVG/1.1/DTD/svg11.dtd">
<svg version="1.1" id="Calque_1" xmlns="http://www.w3.org/2000/svg" xmlns:xlink="http://www.w3.org/1999/xlink" x="0px" y="0px"
	 width="400px" height="400px" viewBox="0 0 400 400" enable-background="new 0 0 400 400" xml:space="preserve">
<g>
	<polygon fill="#D81C28" points="192.023,174.617 193.519,173.585 183.343,163.924 180.865,165.312 176.661,169.06 169.863,182.47 
		177.185,196.903 182.272,201.734 177.12,207.16 187.974,217.466 193.126,212.039 218.227,235.869 230.077,223.388 204.978,199.556 
		211.869,192.298 201.016,181.993 194.124,189.251 190.393,185.708 187.746,180.616 190.148,176.319 	"/>
	<path fill="#D81C28" d="M335.026,87.329c-11.583-13.32-28.369-20.935-46.021-20.935h-58.536c-22.654,0-43.658,9.053-59.017,24.203
		l112.702,121.776l-69.521,60.457l-72.208-44.36c-11.422-7.017-16.703-20.835-12.875-33.682l20.41-68.473
		c4.136-13.877,11.634-26.052,21.443-35.746l-7.15-7.727c-15.015-16.226-40.341-17.207-56.567-2.192
		c-5.266,4.872-9.124,11.07-11.174,17.944L52.892,244.943c-10.88,36.5,9.89,74.91,46.39,85.789
		c22.631,6.744,47.139,1.441,64.958-14.055l50.378-43.816l49.096,30.16c18.35,11.273,42.365,5.537,53.639-12.814
		c9.151-14.897,7.269-34.064-4.606-46.896l-28.607-30.915l44.896-39.034C354.45,151.255,357.135,112.746,335.026,87.329z
		 M137.739,293.785l-22.548-14.529l-3.992,2.94l14.865,20.187l-14.311,10.539l-43.264-58.753l20.262-14.921l16.642-7.375
		l18.169,10.319l1.109,1.507l5.537,12.883l-2.374,10.344l25.346,15.49L137.739,293.785z M300.541,166.487l-25.633-23.257
		l-5.028,5.542l-11.084-10.058l5.028-5.542l-5.195-4.714l-7.646-14.264l6.493-13.56l4.117-3.842l2.446-1.444l10.392,9.429
		l-1.471,1.065l-1.836,1.745l-2.306,4.35l2.762,5.031l3.81,3.457l6.726-7.413l11.085,10.057l-6.726,7.413l25.632,23.257
		L300.541,166.487z"/>
	<polygon fill="#D81C28" points="109.431,253.293 103.404,249.367 98.449,251.158 91.896,255.982 102.102,269.842 108.655,265.018 
		111.834,260.816 109.875,253.896 	"/>
</g>
</svg>
